Week 13 - Basic advanced techniques
…
### A. Iteration

Example: COVID vaccine data - Read in the data

One way to load data:

```r
pfi <- read_csv(here("data", "COVID", "COVID-19_Vaccine_Distribution_Allocations_by_Jurisdiction_-_Pfizer.csv"))
mod <- read_csv(here("data", "COVID", "COVID-19_Vaccine_Distribution_Allocations_by_Jurisdiction_-_Moderna.csv"))
jan <- read_csv(here("data", "COVID", "COVID-19_Vaccine_Distribution_Allocations_by_Jurisdiction_-_Janssen.csv"))
jan
```

```
## # A tibble: 378 x 3
##    Jurisdiction  `Week of Allocations` `1st Dose Allocations`
##    <chr>         <chr>                                  <dbl>
##  1 Connecticut   04/12/2021                              6400
##  2 Maine         04/12/2021                              2500
##  3 Massachusetts 04/12/2021                             12300
##  4 New Hampshire 04/12/2021                              2500
##  5 Rhode Island  04/12/2021                              2000
##  6 Vermont       04/12/2021                              1200
##  7 New Jersey    04/12/2021                             15600
##  8 New York      04/12/2021                             19800
##  9 New York City 04/12/2021                             15100
## 10 Puerto Rico   04/12/2021                              6100
## # … with 368 more rows
```
…
```r
vaccines <- c("Pfizer", "Moderna", "Janssen")
file_base <- "/COVID-19_Vaccine_Distribution_Allocations_by_Jurisdiction_-_"
file_ext <- ".csv"

file_names <- str_c(here("data", "COVID"), file_base, vaccines, file_ext)

vax_files <- file_names %>% map(read_csv)
names(vax_files) <- vaccines
vax_files
```

```
## $Pfizer
## # A tibble: 1,134 x 4
##    Jurisdiction  `Week of Allocations` `1st Dose Allocations` `2nd Dose Allocations`
##    <chr>         <chr>                                  <dbl>                  <dbl>
##  1 Connecticut   04/12/2021                             51480                  51480
##  2 Maine         04/12/2021                             19890                  19890
##  3 Massachusetts 04/12/2021                             97110                  97110
##  4 New Hampshire 04/12/2021                             19890                  19890
##  5 Rhode Island  04/12/2021                             15210                  15210
##  6 Vermont       04/12/2021                              9360                   9360
##  7 New Jersey    04/12/2021                            124020                 124020
##  8 New York      04/12/2021                            156780                 156780
##  9 New York City 04/12/2021                            119340                 119340
## 10 Puerto Rico   04/12/2021                             49140                  49140
## # … with 1,124 more rows
## 
## $Moderna
## # A tibble: 1,071 x 4
##    Jurisdiction  `Week of Allocations` `1st Dose Allocations` `2nd Dose Allocations`
##    <chr>         <chr>                                  <dbl>                  <dbl>
##  1 Connecticut   04/12/2021                             37400                  37400
##  2 Maine         04/12/2021                             14300                  14300
##  3 Massachusetts 04/12/2021                             72100                  72100
##  4 New Hampshire 04/12/2021                             14300                  14300
##  5 Rhode Island  04/12/2021                             11300                  11300
##  6 Vermont       04/12/2021                              6700                   6700
##  7 New Jersey    04/12/2021                             91300                  91300
##  8 New York      04/12/2021                            116300                 116300
##  9 New York City 04/12/2021                             88300                  88300
## 10 Puerto Rico   04/12/2021                             35700                  35700
## # … with 1,061 more rows
## 
## $Janssen
## # A tibble: 378 x 3
##    Jurisdiction  `Week of Allocations` `1st Dose Allocations`
##    <chr>         <chr>                                  <dbl>
##  1 Connecticut   04/12/2021                              6400
##  2 Maine         04/12/2021                              2500
##  3 Massachusetts 04/12/2021                             12300
##  4 New Hampshire 04/12/2021                              2500
##  5 Rhode Island  04/12/2021                              2000
##  6 Vermont       04/12/2021                              1200
##  7 New Jersey    04/12/2021                             15600
##  8 New York      04/12/2021                             19800
##  9 New York City 04/12/2021                             15100
## 10 Puerto Rico   04/12/2021                              6100
## # … with 368 more rows
```
…
}

vax_files <- vax_files %>% map(rename_vaccine_data)
vax_files$Pfizer
```

```
## # A tibble: 1,134 x 4
##    State         Week       `First Dose` `Second Dose`
##    <chr>         <chr>             <dbl>         <dbl>
##  1 Connecticut   04/12/2021        51480         51480
##  2 Maine         04/12/2021        19890         19890
##  3 Massachusetts 04/12/2021        97110         97110
##  4 New Hampshire 04/12/2021        19890         19890
##  5 Rhode Island  04/12/2021        15210         15210
##  6 Vermont       04/12/2021         9360          9360
##  7 New Jersey    04/12/2021       124020        124020
##  8 New York      04/12/2021       156780        156780
##  9 New York City 04/12/2021       119340        119340
## 10 Puerto Rico   04/12/2021        49140         49140
## # … with 1,124 more rows
```
…
```r
ug_data <- read_csv(here("data", "undergrad_data.csv"))

vis_dat(ug_data)
```

<img src="presentations-week-13_files/figure-html/unnamed-chunk-11-1.png" style="display: block; margin: auto;" />

```r
na.omit(ug_data)
```

```
## # A tibble: 419 x 29
##       X1 Stud_ID   PROJ_TOTAL Proj01 Proj02 Proj03 Proj04 Proj05 Proj06 Proj07 Proj08 Proj09 Proj10 Proj11 Total_Pts Exam1 Exam2
##    <dbl> <chr>          <dbl>  <dbl>  <dbl>  <dbl>  <dbl>  <dbl>  <dbl>  <dbl>  <dbl>  <dbl>  <dbl>  <dbl>     <dbl> <dbl> <dbl>
##  1     1 e75ab8254        347     14     19     13     25     27     35     40     47     44     35     48       622    60    60
##  2     2 07ee7a263        427     14     20     20     38     45     42     41     50     52     53     52       902    80   125
##  3     4 52fb2d1ca        397     14     18     19      0     43     43     50     50     52     53     55       831    80   120
##  4     5 a4d76f570        316     14     20     12     36      8     34      0     41     52     49     50       757    76   120
##  5     6 94ea75daa        435     14     20     19     36     45     45     50     50     55     46     55       929    84   135
##  6     7 5e9c38d44        375     13     20     20     36     43     38     46     40     50     22     47       822    76   135
##  7    10 21d036526        354     13     18     17     32     40     33     16     39     52     40     54       810    76   105
##  8    11 3fc8237b5        295     13     20     20     34     43     41     50     19     55      0      0       640    76    90
##  9    14 7e2674224        441     14     20     20     38     44     45     50     48     55     53     54       959    88   145
## 10    15 bc0032340        385     14     20     10     27     38     34     50     42     51     45     54       840    80   140
## # … with 409 more rows, and 12 more variables: Exam3 <dbl>, Prob_solve_pre <dbl>, Prob_solve_post <dbl>, extraversion <dbl>,
## #   agreeableness <dbl>, conscient. <dbl>, stability <dbl>, openness <dbl>, Metacog. <dbl>, SelfEfficacy <dbl>,
## #   IntGoalOrient <dbl>, ExtGoalOrient <dbl>
```
…
