Week 14 - Digital research methods
…
---

### A. Digital research methods

**Big idea: We can treat text like other types of data**

```r
all_aera_tweets
```

```
## # A tibble: 178,868 x 90
##    user_id  status_id   created_at          screen_name text             source 
##    <chr>    <chr>       <dttm>              <chr>       <chr>            <chr>  
##  1 2818093… 1016839228… 2018-07-11 00:18:58 anna_phd    "@cherisemcb @A… TweetD…
##  2 2818093… 1099634886… 2019-02-24 11:39:21 anna_phd    "Heads up on a … Twitte…
##  3 2818093… 1381054607… 2021-04-11 01:20:51 anna_phd    "Woo hoo! Congr… Twitte…
##  4 2818093… 1105622750… 2019-03-13 00:12:59 anna_phd    "Hi #literacies… TweetD…
##  5 2818093… 6380223560… 2015-08-30 16:15:58 anna_phd    "reviewing for … TweetD…
##  6 2818093… 1380752856… 2021-04-10 05:21:48 anna_phd    "Join us tomorr… Twitte…
##  7 2818093… 1114611207… 2019-04-06 19:29:55 anna_phd    "@bnquist @amys… Twitte…
##  8 2818093… 1113385943… 2019-04-03 10:21:09 anna_phd    "Poster sent to… Twitte…
##  9 2818093… 4524365842… 2014-04-05 13:24:22 anna_phd    "\"In an interc… TweetD…
## 10 2818093… 4528792794… 2014-04-06 18:43:28 anna_phd    "Thinking about… TweetD…
## # … with 178,858 more rows, and 84 more variables: display_text_width <dbl>,
## #   reply_to_status_id <chr>, reply_to_user_id <chr>,
## #   reply_to_screen_name <chr>, is_quote <lgl>, is_retweet <lgl>,
## #   favorite_count <int>, retweet_count <int>, quote_count <int>,
## #   reply_count <int>, hashtags <list>, symbols <list>, urls_url <list>,
## #   urls_t.co <list>, urls_expanded_url <list>, media_url <list>,
## #   media_t.co <list>, media_expanded_url <list>, media_type <list>,
## #   ext_media_url <list>, ext_media_t.co <list>, ext_media_expanded_url <list>,
## #   ext_media_type <chr>, mentions_user_id <list>, mentions_screen_name <list>,
…
**Big idea: We can treat text like other types of data**

```r
library(tidytext)

all_aera_tweets_words <- all_aera_tweets %>% 
  select(created_at, text) %>% 
  unnest_tokens(word, text)

all_aera_tweets_words
```

```
## # A tibble: 4,257,813 x 2
##    created_at          word      
##    <dttm>              <chr>     
##  1 2018-07-11 00:18:58 cherisemcb
##  2 2018-07-11 00:18:58 aeraticl  
##  3 2018-07-11 00:18:58 a2        
##  4 2018-07-11 00:18:58 i         
##  5 2018-07-11 00:18:58 too       
##  6 2018-07-11 00:18:58 am        
##  7 2018-07-11 00:18:58 interested
##  8 2018-07-11 00:18:58 in        
##  9 2018-07-11 00:18:58 broadening
## 10 2018-07-11 00:18:58 my        
## # … with 4,257,803 more rows
```

---

### A. Digital research methods

**Sentiment analysis is as straightforward as _joining_ a pre-identified collection of positive and negative words - a dictionary**

```r
all_aera_tweets_words %>%
  inner_join(get_sentiments("bing"))
```

```
## # A tibble: 177,791 x 3
##    created_at          word     sentiment
##    <dttm>              <chr>    <chr>    
##  1 2018-07-11 00:18:58 work     positive 
##  2 2018-07-11 00:18:58 work     positive 
##  3 2018-07-11 00:18:58 love     positive 
##  4 2018-07-11 00:18:58 fresh    positive 
##  5 2021-04-11 01:20:51 woo      positive 
##  6 2021-04-11 01:20:51 winning  positive 
##  7 2021-04-11 01:20:51 best     positive 
##  8 2021-04-11 01:20:51 award    positive 
##  9 2019-03-13 00:12:59 thrilled positive 
## 10 2019-03-13 00:12:59 bad      negative 
## # … with 177,781 more rows
```
---

### A. Digital research methods

**A different dictionary; from these, we can summarize and visualize the sentiment scores**

```r
all_aera_tweets_words %>%
  inner_join(get_sentiments("afinn"))
```

```
## # A tibble: 186,189 x 3
##    created_at          word       value
##    <dttm>              <chr>      <dbl>
##  1 2018-07-11 00:18:58 interested     2
##  2 2018-07-11 00:18:58 love           3
##  3 2018-07-11 00:18:58 fresh          1
##  4 2019-02-24 11:39:21 hope           2
##  5 2021-04-11 01:20:51 woo            3
##  6 2021-04-11 01:20:51 congrats       2
##  7 2021-04-11 01:20:51 winning        4
##  8 2021-04-11 01:20:51 best           3
##  9 2021-04-11 01:20:51 award          3
## 10 2019-03-13 00:12:59 thrilled       5
## # … with 186,179 more rows
```
…
