Week 2: Foundational Skills
…
---

# Basic programming operators

`select()`

```r
library(dplyr)

storms %>% 
  select(name, year, month, day, hour, status)
```

```
## # A tibble: 10,010 x 6
##    name   year month   day  hour status             
##    <chr> <dbl> <dbl> <int> <dbl> <chr>              
##  1 Amy    1975     6    27     0 tropical depression
##  2 Amy    1975     6    27     6 tropical depression
##  3 Amy    1975     6    27    12 tropical depression
##  4 Amy    1975     6    27    18 tropical depression
##  5 Amy    1975     6    28     0 tropical depression
##  6 Amy    1975     6    28     6 tropical depression
##  7 Amy    1975     6    28    12 tropical depression
##  8 Amy    1975     6    28    18 tropical depression
##  9 Amy    1975     6    29     0 tropical storm     
## 10 Amy    1975     6    29     6 tropical storm     
## # … with 10,000 more rows
```

---

`filter()`

```r
library(dplyr)

storms %>% 
  filter(month == 8)
```

```
## # A tibble: 2,400 x 13
##    name      year month   day  hour   lat  long status              category  wind pressure ts_diameter hu_diameter
##    <chr>    <dbl> <dbl> <int> <dbl> <dbl> <dbl> <chr>               <ord>    <int>    <int>       <dbl>       <dbl>
##  1 Caroline  1975     8    24    12  22.4 -69.8 tropical depression -1          25     1011          NA          NA
##  2 Caroline  1975     8    24    18  21.9 -71.1 tropical depression -1          25     1011          NA          NA
##  3 Caroline  1975     8    25     0  21.6 -72.5 tropical depression -1          25     1010          NA          NA
##  4 Caroline  1975     8    25     6  21.2 -73.8 tropical depression -1          25     1010          NA          NA
##  5 Caroline  1975     8    25    12  20.9 -75.1 tropical depression -1          25     1011          NA          NA
##  6 Caroline  1975     8    25    18  20.6 -76.4 tropical depression -1          25     1011          NA          NA
##  7 Caroline  1975     8    26     0  20.4 -77.7 tropical depression -1          25     1011          NA          NA
##  8 Caroline  1975     8    26     6  20.3 -79   tropical depression -1          25     1011          NA          NA
##  9 Caroline  1975     8    26    12  20.2 -80.3 tropical depression -1          25     1012          NA          NA
## 10 Caroline  1975     8    26    18  20.2 -81.6 tropical depression -1          25     1012          NA          NA
## # … with 2,390 more rows
```

---

`arrange()`

```r
library(dplyr)

storms %>% 
  arrange(hour)
```

```
## # A tibble: 10,010 x 13
##    name      year month   day  hour   lat  long status              category  wind pressure ts_diameter hu_diameter
##    <chr>    <dbl> <dbl> <int> <dbl> <dbl> <dbl> <chr>               <ord>    <int>    <int>       <dbl>       <dbl>
##  1 Amy       1975     6    27     0  27.5 -79   tropical depression -1          25     1013          NA          NA
##  2 Amy       1975     6    28     0  31.5 -78.8 tropical depression -1          25     1012          NA          NA
##  3 Amy       1975     6    29     0  34.4 -75.8 tropical storm      0           35     1004          NA          NA
##  4 Amy       1975     6    30     0  34.3 -71.6 tropical storm      0           50      998          NA          NA
##  5 Amy       1975     7     1     0  36.2 -69.8 tropical storm      0           60      984          NA          NA
##  6 Amy       1975     7     2     0  37.4 -66.7 tropical storm      0           60      984          NA          NA
##  7 Amy       1975     7     3     0  37.7 -62.8 tropical storm      0           55      986          NA          NA
##  8 Amy       1975     7     4     0  42.5 -54.8 tropical storm      0           50      986          NA          NA
##  9 Caroline  1975     8    25     0  21.6 -72.5 tropical depression -1          25     1010          NA          NA
## 10 Caroline  1975     8    26     0  20.4 -77.7 tropical depression -1          25     1011          NA          NA
## # … with 10,000 more rows
```

---

# Putting it together

```r
storms %>% 
  select(name, year, month, day, hour, status) %>% 
  filter(month == 8) %>% 
  arrange(hour)
```

```
## # A tibble: 2,400 x 6
##    name      year month   day  hour status             
##    <chr>    <dbl> <dbl> <int> <dbl> <chr>              
##  1 Caroline  1975     8    25     0 tropical depression
##  2 Caroline  1975     8    26     0 tropical depression
##  3 Caroline  1975     8    27     0 tropical depression
##  4 Caroline  1975     8    28     0 tropical depression
##  5 Caroline  1975     8    29     0 tropical depression
##  6 Caroline  1975     8    30     0 hurricane          
##  7 Caroline  1975     8    31     0 hurricane          
##  8 Doris     1975     8    30     0 tropical storm     
##  9 Doris     1975     8    31     0 hurricane          
## 10 Belle     1976     8     7     0 tropical storm     
## # … with 2,390 more rows
```
…
---

# Breakout rooms

```r
library(dplyr)

storms
```

```
## # A tibble: 10,010 x 13
##    name   year month   day  hour   lat  long status              category  wind pressure ts_diameter hu_diameter
##    <chr> <dbl> <dbl> <int> <dbl> <dbl> <dbl> <chr>               <ord>    <int>    <int>       <dbl>       <dbl>
##  1 Amy    1975     6    27     0  27.5 -79   tropical depression -1          25     1013          NA          NA
##  2 Amy    1975     6    27     6  28.5 -79   tropical depression -1          25     1013          NA          NA
##  3 Amy    1975     6    27    12  29.5 -79   tropical depression -1          25     1013          NA          NA
##  4 Amy    1975     6    27    18  30.5 -79   tropical depression -1          25     1013          NA          NA
##  5 Amy    1975     6    28     0  31.5 -78.8 tropical depression -1          25     1012          NA          NA
##  6 Amy    1975     6    28     6  32.4 -78.7 tropical depression -1          25     1012          NA          NA
##  7 Amy    1975     6    28    12  33.3 -78   tropical depression -1          25     1011          NA          NA
##  8 Amy    1975     6    28    18  34   -77   tropical depression -1          30     1006          NA          NA
##  9 Amy    1975     6    29     0  34.4 -75.8 tropical storm      0           35     1004          NA          NA
## 10 Amy    1975     6    29     6  34   -74.8 tropical storm      0           40     1002          NA          NA
## # … with 10,000 more rows
```
…
