presentations-week-11.utf8
…
head(fitted(m1))

Get the data used to fit the model

head(model.frame(m1))

C. Model helpers - tests, diagnostics, etc.

There are a number of helper functions that work with lm and other models - How do we know which ones?

library(sloop)
s3_methods_class("lm")

## # A tibble: 85 x 4
##    generic       class visible source             
##    <chr>         <chr> <lgl>   <chr>              
##  1 add1          lm    FALSE   registered S3method
##  2 alias         lm    FALSE   registered S3method
##  3 anova         lm    FALSE   registered S3method
##  4 Anova         lm    FALSE   registered S3method
##  5 as.data.frame lm    FALSE   registered S3method
##  6 augment       lm    FALSE   registered S3method
##  7 avPlot        lm    FALSE   registered S3method
##  8 Boot          lm    FALSE   registered S3method
##  9 bootCase      lm    FALSE   registered S3method
## 10 boxCox        lm    FALSE   registered S3method
## #  with 75 more rows
…
