HW Week 5 - Introduction to Data Viz
…
---

### 1B: How to visualize data?

Let's see how this might appear:

```r
data
```

```
## # A tibble: 1,618 x 2
##    name       value
##    <chr>      <dbl>
##  1 Question 1 4.63 
##  2 Question 1 4.21 
##  3 Question 1 1.90 
##  4 Question 1 2.66 
##  5 Question 1 2.72 
##  6 Question 1 3.66 
##  7 Question 1 3.47 
##  8 Question 1 0.778
##  9 Question 1 3.74 
## 10 Question 1 3.42 
## # … with 1,608 more rows
```
…
