Week 1 - Tutorial
…
We’ll do so by running the following line of code. This line of code, though, is a bit different from most: it installs a new R “package” with specific, additional functionality. Installing R packages is very common. The reason it is different from most code, though, is you typically only want to run it once - after that, the package is installed on your computer, and you don’t need to run it again. For that reason, we’ve commented out this line of code below. You will just have to remove that comment symbol and then click the green arrow to the right to run the code!

# install.packages("ggplot2")

Next, we’ll “load” ggplot2, or check it out for use in our current analysis / R session. Run this next chunk the same way as the first:

library(ggplot2)

Print a built-in dataset

Next, simply run msleep to view a dataset built-in to R:

msleep

## # A tibble: 83 x 11
##    name              genus     vore  order    conservation sleep_total sleep_rem sleep_cycle awake  brainwt  bodywt
##    <chr>             <chr>     <chr> <chr>    <chr>              <dbl>     <dbl>       <dbl> <dbl>    <dbl>   <dbl>
##  1 Cheetah           Acinonyx  carni Carnivo… lc                  12.1      NA        NA      11.9 NA        50    
##  2 Owl monkey        Aotus     omni  Primates <NA>                17         1.8      NA       7    0.0155    0.48 
##  3 Mountain beaver   Aplodont… herbi Rodentia nt                  14.4       2.4      NA       9.6 NA         1.35 
##  4 Greater short-ta… Blarina   omni  Soricom… lc                  14.9       2.3       0.133   9.1  0.00029   0.019
##  5 Cow               Bos       herbi Artioda… domesticated         4         0.7       0.667  20    0.423   600    
##  6 Three-toed sloth  Bradypus  herbi Pilosa   <NA>                14.4       2.2       0.767   9.6 NA         3.85 
##  7 Northern fur seal Callorhi… carni Carnivo… vu                   8.7       1.4       0.383  15.3 NA        20.5  
##  8 Vesper mouse      Calomys   <NA>  Rodentia <NA>                 7        NA        NA      17   NA         0.045
##  9 Dog               Canis     carni Carnivo… domesticated        10.1       2.9       0.333  13.9  0.07     14    
## 10 Roe deer          Capreolus herbi Artioda… lc                   3        NA        NA      21    0.0982   14.8  
## # … with 73 more rows
…
